Evaluation of a motor competence “proficiency barrier” to health-related fitness in youth
…
## 
## ── Column specification ────────────────────────────────────────────────────────
## cols(
##   .default = col_double(),
##   birthdate = col_character(),
##   TestDate_Pretest = col_character()
## )
## ℹ Use `spec()` for the full column specifications.

## 
##   0   2   3   4 
##  43 148  23  27

## # A tibble: 244 x 40
##    PartID   sex birthdate TestDate_Pretest Age_Test_yrs ethnicity SeatHt StaHt
##     <dbl> <dbl> <chr>     <chr>                   <dbl>     <dbl>  <dbl> <dbl>
##  1    999     0 26-Aug-04 18-Apr-18                13.6         4   113   159 
##  2    998     1 9-Jun-05  16-Apr-18                12.9         0   112.  160 
##  3    997     0 38930     43755                    13.2         2   114   158.
##  4    430     1 20-Nov-06 17-Oct-19                12.9         2   109   160.
##  5    429     1 16-Sep-06 17-Oct-19                13.1         2   110   158.
##  6    427     0 39327     43755                    12.1         2   108.  155 
##  7    425     1 22-Sep-07 17-Oct-19                12.1         2   107   154.
##  8    424     1 17-Aug-07 17-Oct-19                12.2         4   114   164 
##  9    421     0 39269     43755                    12.3         0   109   154 
## 10    420     0 39183     43755                    12.5         2   112   152.
## # … with 234 more rows, and 32 more variables: Ht_meters <dbl>,
## #   StandHeight_Ft <dbl>, Weight_lbs <dbl>, Weightkg <dbl>, BMI <dbl>,
## #   BMI_HFZ <dbl>, PerFat <dbl>, PerFat_HFZ <dbl>, GripR1 <dbl>, GripR2 <dbl>,
## #   GripR3 <dbl>, GripL1 <dbl>, GripL2 <dbl>, GripL3 <dbl>,
## #   Grip_Max_Sum_kg <dbl>, Allo_Grip_Max_Mean_KG <dbl>,
## #   allo_grip_percentile <dbl>, allo_grip_class <dbl>, Grip_Max_Mean_kg <dbl>,
## #   Grip_Max_Mean_lbs <dbl>, Grip_Max_Sum_lbs <dbl>, PACER <dbl>,
## #   PACER_VO2max <dbl>, PACER_HFZ <dbl>, HRF <dbl>, MCA_Overall <dbl>,
## #   MCA_Class <dbl>, Sex <fct>, MC_Level <fct>, Grip_Level <fct>,
## #   PACER_Level <fct>, Ethnicity <fct>

Descriptive Statistics

## # A tibble: 244 x 9
##    MC_Level Sex    Ethnicity      Age_Test_yrs StaHt Weightkg   BMI PACER_VO2max
##    <fct>    <fct>  <fct>                 <dbl> <dbl>    <dbl> <dbl>        <dbl>
##  1 Moderate Male   Other                  13.6  159      71.5  28.3         34.2
##  2 High     Female African Ameri…         12.9  160      54.3  21.2         46  
##  3 High     Male   non-Hispanic …         13.2  158.     48    19.2         43.3
##  4 Moderate Female non-Hispanic …         12.9  160.     54.5  21.6         48.0
##  5 Moderate Female non-Hispanic …         13.1  158.     55.5  22.5         48.0
##  6 Moderate Male   non-Hispanic …         12.1  155      43.1  17.9         39.4
##  7 Low      Female non-Hispanic …         12.1  154.     71.3  30.1         32.9
##  8 Moderate Female Other                  12.2  164      91.2  33.9         34.2
##  9 Moderate Male   African Ameri…         12.3  154      62.5  26.4         31.8
## 10 Moderate Male   non-Hispanic …         12.5  152.     64.8  28.1         33.5
## # … with 234 more rows, and 1 more variable: Grip_Max_Mean_kg <dbl>
…
